…
starwars %>% 
  select(name, ends_with("color"))
#> # A tibble: 87 × 4
#>    name               hair_color    skin_color  eye_color
#>    <chr>              <chr>         <chr>       <chr>    
#>  1 Luke Skywalker     blond         fair        blue     
#>  2 C-3PO              <NA>          gold        yellow   
#>  3 R2-D2              <NA>          white, blue red      
#>  4 Darth Vader        none          white       yellow   
#>  5 Leia Organa        brown         light       brown    
#>  6 Owen Lars          brown, grey   light       blue     
#>  7 Beru Whitesun lars brown         light       blue     
#>  8 R5-D4              <NA>          white, red  red      
#>  9 Biggs Darklighter  black         light       brown    
#> 10 Obi-Wan Kenobi     auburn, white fair        blue-gray
#> # … with 77 more rows


starwars %>% 
  mutate(name, bmi = mass / ((height / 100)  ^ 2)) %>%
  select(name:mass, bmi)
#> # A tibble: 87 × 4
#>    name               height  mass   bmi
#>    <chr>               <int> <dbl> <dbl>
#>  1 Luke Skywalker        172    77  26.0
#>  2 C-3PO                 167    75  26.9
#>  3 R2-D2                  96    32  34.7
#>  4 Darth Vader           202   136  33.3
#>  5 Leia Organa           150    49  21.8
#>  6 Owen Lars             178   120  37.9
#>  7 Beru Whitesun lars    165    75  27.5
#>  8 R5-D4                  97    32  34.0
#>  9 Biggs Darklighter     183    84  25.1
#> 10 Obi-Wan Kenobi        182    77  23.2
#> # … with 77 more rows


starwars %>% 
  arrange(desc(mass))
#> # A tibble: 87 × 14
#>    name         height  mass hair_color skin_color eye_color
#>    <chr>         <int> <dbl> <chr>      <chr>      <chr>    
#>  1 Jabba Desil…    175  1358 <NA>       green-tan… orange   
#>  2 Grievous        216   159 none       brown, wh… green, y…
#>  3 IG-88           200   140 none       metal      red      
#>  4 Darth Vader     202   136 none       white      yellow   
#>  5 Tarfful         234   136 brown      brown      blue     
#>  6 Owen Lars       178   120 brown, gr… light      blue     
#>  7 Bossk           190   113 none       green      red      
#>  8 Chewbacca       228   112 brown      unknown    blue     
#>  9 Jek Tono Po…    180   110 brown      fair       blue     
#> 10 Dexter Jett…    198   102 none       brown      yellow   
#> # … with 77 more rows, and 8 more variables:
#> #   birth_year <dbl>, sex <chr>, gender <chr>,
#> #   homeworld <chr>, species <chr>, films <list>,
#> #   vehicles <list>, starships <list>
…
