Chapter 25 Diamonds Practice | BADM 371 Intro to Data Analytics
…
Determine the average price and standard deviation for ideal cut diamonds.

#> # A tibble: 1 × 2
#>    mean std_dev
#>   <dbl>   <dbl>
#> 1 3458.   3808.

Organize the average price by cut and color in descending order.

#> # A tibble: 35 × 3
#> # Groups:   cut [5]
#>    cut       color price
#>    <ord>     <ord> <dbl>
#>  1 Premium   J     6295.
#>  2 Premium   I     5946.
#>  3 Very Good I     5256.
#>  4 Premium   H     5217.
#>  5 Fair      H     5136.
#>  6 Very Good J     5104.
#>  7 Good      I     5079.
#>  8 Fair      J     4976.
#>  9 Ideal     J     4918.
#> 10 Fair      I     4685.
#> # … with 25 more rows
…
